<svg width="46" height="56" viewBox="0 0 46 56" fill="none" xmlns="http://www.w3.org/2000/svg">
<path d="M28.3333 1.33325H6.99996C5.58547 1.33325 4.22892 1.89515 3.22872 2.89535C2.22853 3.89554 1.66663 5.2521 1.66663 6.66658V49.3332C1.66663 50.7477 2.22853 52.1043 3.22872 53.1045C4.22892 54.1047 5.58547 54.6666 6.99996 54.6666H39C40.4144 54.6666 41.771 54.1047 42.7712 53.1045C43.7714 52.1043 44.3333 50.7477 44.3333 49.3332V17.3333L28.3333 1.33325Z" stroke="#951A8D" stroke-width="2" stroke-linecap="round" stroke-linejoin="round"/>
<path d="M28.3333 1.33325V17.3333H44.3333" stroke="#951A8D" stroke-width="2" stroke-linecap="round" stroke-linejoin="round"/>
<path d="M33.6666 30.6667H12.3333" stroke="#951A8D" stroke-width="2" stroke-linecap="round" stroke-linejoin="round"/>
<path d="M33.6666 41.3333H12.3333" stroke="#951A8D" stroke-width="2" stroke-linecap="round" stroke-linejoin="round"/>
<path d="M17.6666 20H15H12.3333" stroke="#951A8D" stroke-width="2" stroke-linecap="round" stroke-linejoin="round"/>
</svg>
