<svg width="483" height="620" viewBox="0 0 483 620" fill="none" xmlns="http://www.w3.org/2000/svg">
<g clip-path="url(#clip0_110_6612)">
<path d="M575.959 232.123L449.856 394.62" stroke="#EBEBEB" stroke-miterlimit="10" stroke-linecap="round"/>
<path d="M611.618 287.926L414.044 345.308" stroke="#EBEBEB" stroke-miterlimit="10" stroke-linecap="round"/>
<path d="M609.489 354.69L415.913 285.027" stroke="#EBEBEB" stroke-miterlimit="10" stroke-linecap="round"/>
<path d="M570.35 408.152L454.694 238.057" stroke="#EBEBEB" stroke-miterlimit="10" stroke-linecap="round"/>
<path d="M448.956 410.837L575.066 248.339" stroke="#EBEBEB" stroke-miterlimit="10" stroke-linecap="round"/>
<path d="M412.892 361.509L610.474 304.127" stroke="#EBEBEB" stroke-miterlimit="10" stroke-linecap="round"/>
<path d="M414.502 301.206L608.093 370.876" stroke="#EBEBEB" stroke-miterlimit="10" stroke-linecap="round"/>
<path d="M453.038 254.22L568.694 424.307" stroke="#EBEBEB" stroke-miterlimit="10" stroke-linecap="round"/>
<path d="M572.906 264.425L446.796 426.931" stroke="#EBEBEB" stroke-miterlimit="10" stroke-linecap="round"/>
<path d="M608.062 320.19L410.472 377.565" stroke="#EBEBEB" stroke-miterlimit="10" stroke-linecap="round"/>
<path d="M605.422 386.901L411.838 317.238" stroke="#EBEBEB" stroke-miterlimit="10" stroke-linecap="round"/>
<path d="M565.771 440.286L450.115 270.191" stroke="#EBEBEB" stroke-miterlimit="10" stroke-linecap="round"/>
<path d="M443.377 442.804L569.488 280.313" stroke="#EBEBEB" stroke-miterlimit="10" stroke-linecap="round"/>
<path d="M406.802 393.385L604.384 336.018" stroke="#EBEBEB" stroke-miterlimit="10" stroke-linecap="round"/>
<path d="M407.916 332.989L601.507 402.652" stroke="#EBEBEB" stroke-miterlimit="10" stroke-linecap="round"/>
<path d="M445.957 285.889L561.597 455.984" stroke="#EBEBEB" stroke-miterlimit="10" stroke-linecap="round"/>
<path d="M564.825 295.866L438.722 458.372" stroke="#EBEBEB" stroke-miterlimit="10" stroke-linecap="round"/>
<path d="M599.485 351.501L401.91 408.868" stroke="#EBEBEB" stroke-miterlimit="10" stroke-linecap="round"/>
<path d="M596.364 418.067L402.788 348.405" stroke="#EBEBEB" stroke-miterlimit="10" stroke-linecap="round"/>
<path d="M556.217 471.316L440.577 301.221" stroke="#EBEBEB" stroke-miterlimit="10" stroke-linecap="round"/>
<path d="M432.854 473.512L558.964 311.022" stroke="#EBEBEB" stroke-miterlimit="10" stroke-linecap="round"/>
<path d="M395.806 423.925L593.388 366.543" stroke="#EBEBEB" stroke-miterlimit="10" stroke-linecap="round"/>
<path d="M396.447 363.355L590.03 433.018" stroke="#EBEBEB" stroke-miterlimit="10" stroke-linecap="round"/>
<path d="M433.999 316.064L549.655 486.167" stroke="#EBEBEB" stroke-miterlimit="10" stroke-linecap="round"/>
<path d="M551.929 325.652L425.834 488.157" stroke="#EBEBEB" stroke-miterlimit="10" stroke-linecap="round"/>
<path d="M586.123 381.074L388.549 438.456" stroke="#EBEBEB" stroke-miterlimit="10" stroke-linecap="round"/>
<path d="M582.544 447.433L388.953 377.763" stroke="#EBEBEB" stroke-miterlimit="10" stroke-linecap="round"/>
<path d="M541.94 500.461L426.292 330.366" stroke="#EBEBEB" stroke-miterlimit="10" stroke-linecap="round"/>
<path d="M479.205 520.964L485.676 315.416" stroke="#EBEBEB" stroke-miterlimit="10" stroke-linecap="round"/>
<path d="M417.661 502.192L543.771 339.702" stroke="#EBEBEB" stroke-miterlimit="10" stroke-linecap="round"/>
<path d="M380.162 452.369L577.744 394.994" stroke="#EBEBEB" stroke-miterlimit="10" stroke-linecap="round"/>
<path d="M380.353 391.546L573.944 461.217" stroke="#EBEBEB" stroke-miterlimit="10" stroke-linecap="round"/>
<path d="M417.485 344.004L533.126 514.099" stroke="#EBEBEB" stroke-miterlimit="10" stroke-linecap="round"/>
<path d="M476.641 328.924L470.17 534.472" stroke="#EBEBEB" stroke-miterlimit="10" stroke-linecap="round"/>
<path d="M534.537 353.058L408.427 515.563" stroke="#EBEBEB" stroke-miterlimit="10" stroke-linecap="round"/>
<path d="M568.29 408.213L370.715 465.58" stroke="#EBEBEB" stroke-miterlimit="10" stroke-linecap="round"/>
<path d="M564.283 474.275L370.707 404.612" stroke="#EBEBEB" stroke-miterlimit="10" stroke-linecap="round"/>
<path d="M523.267 527.02L407.618 356.91" stroke="#EBEBEB" stroke-miterlimit="10" stroke-linecap="round"/>
<path d="M460.12 547.225L466.576 341.677" stroke="#EBEBEB" stroke-miterlimit="10" stroke-linecap="round"/>
<path d="M398.171 528.148L524.274 365.658" stroke="#EBEBEB" stroke-miterlimit="10" stroke-linecap="round"/>
<path d="M360.26 478.013L557.843 420.646" stroke="#EBEBEB" stroke-miterlimit="10" stroke-linecap="round"/>
<path d="M360.047 416.885L553.646 486.548" stroke="#EBEBEB" stroke-miterlimit="10" stroke-linecap="round"/>
<path d="M396.775 369.015L512.423 539.11" stroke="#EBEBEB" stroke-miterlimit="10" stroke-linecap="round"/>
<path d="M455.556 353.607L449.093 559.155" stroke="#EBEBEB" stroke-miterlimit="10" stroke-linecap="round"/>
<path d="M513.064 377.405L386.954 539.91" stroke="#EBEBEB" stroke-miterlimit="10" stroke-linecap="round"/>
<path d="M546.442 432.217L348.867 489.584" stroke="#EBEBEB" stroke-miterlimit="10" stroke-linecap="round"/>
<path d="M542.054 497.944L348.47 428.266" stroke="#EBEBEB" stroke-miterlimit="10" stroke-linecap="round"/>
<path d="M500.671 550.322L385.023 380.219" stroke="#EBEBEB" stroke-miterlimit="10" stroke-linecap="round"/>
<path d="M437.158 570.177L443.629 364.621" stroke="#EBEBEB" stroke-miterlimit="10" stroke-linecap="round"/>
<path d="M374.858 550.734L500.953 388.244" stroke="#EBEBEB" stroke-miterlimit="10" stroke-linecap="round"/>
<path d="M336.589 500.232L534.171 442.85" stroke="#EBEBEB" stroke-miterlimit="10" stroke-linecap="round"/>
<path d="M336.032 438.723L529.623 508.386" stroke="#EBEBEB" stroke-miterlimit="10" stroke-linecap="round"/>
<path d="M372.417 390.479L488.065 560.574" stroke="#EBEBEB" stroke-miterlimit="10" stroke-linecap="round"/>
<path d="M430.87 374.674L424.399 580.237" stroke="#EBEBEB" stroke-miterlimit="10" stroke-linecap="round"/>
<path d="M488.042 398.091L361.932 560.596" stroke="#EBEBEB" stroke-miterlimit="10" stroke-linecap="round"/>
<path d="M521.099 452.506L323.525 509.88" stroke="#EBEBEB" stroke-miterlimit="10" stroke-linecap="round"/>
<path d="M516.406 517.836L322.815 448.173" stroke="#EBEBEB" stroke-miterlimit="10" stroke-linecap="round"/>
<path d="M474.703 569.803L359.055 399.708" stroke="#EBEBEB" stroke-miterlimit="10" stroke-linecap="round"/>
<path d="M410.885 589.253L417.356 383.698" stroke="#EBEBEB" stroke-miterlimit="10" stroke-linecap="round"/>
<path d="M348.287 569.399L474.398 406.908" stroke="#EBEBEB" stroke-miterlimit="10" stroke-linecap="round"/>
<path d="M309.735 518.469L507.31 461.102" stroke="#EBEBEB" stroke-miterlimit="10" stroke-linecap="round"/>
<path d="M308.896 456.541L502.48 526.204" stroke="#EBEBEB" stroke-miterlimit="10" stroke-linecap="round"/>
<path d="M345.006 407.87L460.654 577.972" stroke="#EBEBEB" stroke-miterlimit="10" stroke-linecap="round"/>
<path d="M403.177 391.638L396.721 597.186" stroke="#EBEBEB" stroke-miterlimit="10" stroke-linecap="round"/>
<path d="M460.089 414.612L333.987 577.118" stroke="#EBEBEB" stroke-miterlimit="10" stroke-linecap="round"/>
<path d="M492.903 468.585L295.32 525.967" stroke="#EBEBEB" stroke-miterlimit="10" stroke-linecap="round"/>
<path d="M487.942 533.473L294.366 463.81" stroke="#EBEBEB" stroke-miterlimit="10" stroke-linecap="round"/>
<path d="M446.003 584.989L330.362 414.902" stroke="#EBEBEB" stroke-miterlimit="10" stroke-linecap="round"/>
<path d="M381.963 603.997L388.419 398.434" stroke="#EBEBEB" stroke-miterlimit="10" stroke-linecap="round"/>
<path d="M319.129 583.677L445.224 421.187" stroke="#EBEBEB" stroke-miterlimit="10" stroke-linecap="round"/>
<path d="M280.356 532.291L477.931 474.916" stroke="#EBEBEB" stroke-miterlimit="10" stroke-linecap="round"/>
<path d="M279.303 469.897L472.894 539.56" stroke="#EBEBEB" stroke-miterlimit="10" stroke-linecap="round"/>
<path d="M315.199 420.76L430.855 590.855" stroke="#EBEBEB" stroke-miterlimit="10" stroke-linecap="round"/>
<path d="M373.172 404.063L366.716 609.611" stroke="#EBEBEB" stroke-miterlimit="10" stroke-linecap="round"/>
<path d="M429.901 426.564L303.791 589.07" stroke="#EBEBEB" stroke-miterlimit="10" stroke-linecap="round"/>
<path d="M462.524 480.057L264.941 537.431" stroke="#EBEBEB" stroke-miterlimit="10" stroke-linecap="round"/>
<path d="M457.388 544.464L263.812 474.801" stroke="#EBEBEB" stroke-miterlimit="10" stroke-linecap="round"/>
<path d="M415.28 595.508L299.64 425.42" stroke="#EBEBEB" stroke-miterlimit="10" stroke-linecap="round"/>
<path d="M351.073 614.02L357.544 408.472" stroke="#EBEBEB" stroke-miterlimit="10" stroke-linecap="round"/>
<path d="M288.086 593.227L414.196 430.722" stroke="#EBEBEB" stroke-miterlimit="10" stroke-linecap="round"/>
<path d="M249.168 541.352L446.75 483.97" stroke="#EBEBEB" stroke-miterlimit="10" stroke-linecap="round"/>
<path d="M247.985 478.463L441.569 548.126" stroke="#EBEBEB" stroke-miterlimit="10" stroke-linecap="round"/>
<path d="M283.759 428.83L399.4 598.925" stroke="#EBEBEB" stroke-miterlimit="10" stroke-linecap="round"/>
<path d="M341.603 411.638L335.139 617.186" stroke="#EBEBEB" stroke-miterlimit="10" stroke-linecap="round"/>
<path d="M398.209 433.643L272.099 596.149" stroke="#EBEBEB" stroke-miterlimit="10" stroke-linecap="round"/>
<path d="M430.725 486.64L233.15 544.014" stroke="#EBEBEB" stroke-miterlimit="10" stroke-linecap="round"/>
<path d="M425.498 550.536L231.922 480.873" stroke="#EBEBEB" stroke-miterlimit="10" stroke-linecap="round"/>
<path d="M383.298 601.091L267.65 430.996" stroke="#EBEBEB" stroke-miterlimit="10" stroke-linecap="round"/>
<path d="M319.007 619.1L325.463 413.537" stroke="#EBEBEB" stroke-miterlimit="10" stroke-linecap="round"/>
<path d="M255.937 597.804L382.047 435.298" stroke="#EBEBEB" stroke-miterlimit="10" stroke-linecap="round"/>
<path d="M216.958 545.417L414.54 488.035" stroke="#EBEBEB" stroke-miterlimit="10" stroke-linecap="round"/>
<path d="M215.706 482.017L409.29 551.68" stroke="#EBEBEB" stroke-miterlimit="10" stroke-linecap="round"/>
<path d="M251.427 431.881L367.075 601.976" stroke="#EBEBEB" stroke-miterlimit="10" stroke-linecap="round"/>
<path d="M309.232 414.177L302.768 619.74" stroke="#EBEBEB" stroke-miterlimit="10" stroke-linecap="round"/>
<path d="M365.801 435.687L239.698 598.177" stroke="#EBEBEB" stroke-miterlimit="10" stroke-linecap="round"/>
<path d="M398.293 488.165L200.711 545.547" stroke="#EBEBEB" stroke-miterlimit="10" stroke-linecap="round"/>
<path d="M393.043 551.565L199.459 481.887" stroke="#EBEBEB" stroke-miterlimit="10" stroke-linecap="round"/>
<path d="M350.828 601.595L235.18 431.507" stroke="#EBEBEB" stroke-miterlimit="10" stroke-linecap="round"/>
<path d="M286.537 619.1L292.993 413.537" stroke="#EBEBEB" stroke-miterlimit="10" stroke-linecap="round"/>
<path d="M223.474 597.293L349.577 434.787" stroke="#EBEBEB" stroke-miterlimit="10" stroke-linecap="round"/>
<path d="M184.503 544.388L382.077 487.021" stroke="#EBEBEB" stroke-miterlimit="10" stroke-linecap="round"/>
<path d="M183.274 480.499L376.85 550.162" stroke="#EBEBEB" stroke-miterlimit="10" stroke-linecap="round"/>
<path d="M219.018 429.852L334.666 599.939" stroke="#EBEBEB" stroke-miterlimit="10" stroke-linecap="round"/>
<path d="M276.861 411.638L270.397 617.186" stroke="#EBEBEB" stroke-miterlimit="10" stroke-linecap="round"/>
<path d="M333.483 432.628L207.373 595.134" stroke="#EBEBEB" stroke-miterlimit="10" stroke-linecap="round"/>
<path d="M366.007 484.61L168.432 541.977" stroke="#EBEBEB" stroke-miterlimit="10" stroke-linecap="round"/>
<path d="M360.833 547.5L167.249 477.822" stroke="#EBEBEB" stroke-miterlimit="10" stroke-linecap="round"/>
<path d="M318.686 597.018L203.031 426.931" stroke="#EBEBEB" stroke-miterlimit="10" stroke-linecap="round"/>
<path d="M254.456 614.02L260.927 408.472" stroke="#EBEBEB" stroke-miterlimit="10" stroke-linecap="round"/>
<path d="M191.493 591.702L317.588 429.211" stroke="#EBEBEB" stroke-miterlimit="10" stroke-linecap="round"/>
<path d="M152.613 538.316L350.187 480.941" stroke="#EBEBEB" stroke-miterlimit="10" stroke-linecap="round"/>
<path d="M151.476 473.909L345.059 543.572" stroke="#EBEBEB" stroke-miterlimit="10" stroke-linecap="round"/>
<path d="M187.326 422.773L302.974 592.861" stroke="#EBEBEB" stroke-miterlimit="10" stroke-linecap="round"/>
<path d="M245.291 404.063L238.828 609.611" stroke="#EBEBEB" stroke-miterlimit="10" stroke-linecap="round"/>
<path d="M302.028 424.559L175.918 587.056" stroke="#EBEBEB" stroke-miterlimit="10" stroke-linecap="round"/>
<path d="M334.697 476.037L137.122 533.419" stroke="#EBEBEB" stroke-miterlimit="10" stroke-linecap="round"/>
<path d="M329.652 538.431L136.069 468.768" stroke="#EBEBEB" stroke-miterlimit="10" stroke-linecap="round"/>
<path d="M287.651 587.483L172.003 417.381" stroke="#EBEBEB" stroke-miterlimit="10" stroke-linecap="round"/>
<path d="M223.581 603.997L230.037 398.434" stroke="#EBEBEB" stroke-miterlimit="10" stroke-linecap="round"/>
<path d="M160.77 581.198L286.865 418.693" stroke="#EBEBEB" stroke-miterlimit="10" stroke-linecap="round"/>
<path d="M122.058 527.325L319.633 469.943" stroke="#EBEBEB" stroke-miterlimit="10" stroke-linecap="round"/>
<path d="M121.097 462.437L314.688 532.107" stroke="#EBEBEB" stroke-miterlimit="10" stroke-linecap="round"/>
<path d="M157.138 410.821L272.786 580.909" stroke="#EBEBEB" stroke-miterlimit="10" stroke-linecap="round"/>
<path d="M215.294 391.638L208.823 597.186" stroke="#EBEBEB" stroke-miterlimit="10" stroke-linecap="round"/>
<path d="M272.229 411.676L146.119 574.166" stroke="#EBEBEB" stroke-miterlimit="10" stroke-linecap="round"/>
<path d="M305.103 462.681L107.521 520.063" stroke="#EBEBEB" stroke-miterlimit="10" stroke-linecap="round"/>
<path d="M300.265 524.617L106.682 454.955" stroke="#EBEBEB" stroke-miterlimit="10" stroke-linecap="round"/>
<path d="M258.485 573.205L142.845 403.102" stroke="#EBEBEB" stroke-miterlimit="10" stroke-linecap="round"/>
<path d="M194.644 589.253L201.115 383.698" stroke="#EBEBEB" stroke-miterlimit="10" stroke-linecap="round"/>
<path d="M132.07 566.004L258.173 403.506" stroke="#EBEBEB" stroke-miterlimit="10" stroke-linecap="round"/>
<path d="M93.6096 511.688L291.184 454.306" stroke="#EBEBEB" stroke-miterlimit="10" stroke-linecap="round"/>
<path d="M92.8999 446.358L286.476 516.021" stroke="#EBEBEB" stroke-miterlimit="10" stroke-linecap="round"/>
<path d="M129.186 394.3L244.834 564.387" stroke="#EBEBEB" stroke-miterlimit="10" stroke-linecap="round"/>
<path d="M187.601 374.674L181.13 580.23" stroke="#EBEBEB" stroke-miterlimit="10" stroke-linecap="round"/>
<path d="M244.811 394.277L118.7 556.775" stroke="#EBEBEB" stroke-miterlimit="10" stroke-linecap="round"/>
<path d="M277.968 444.871L80.3853 502.245" stroke="#EBEBEB" stroke-miterlimit="10" stroke-linecap="round"/>
<path d="M273.412 506.38L79.8281 436.702" stroke="#EBEBEB" stroke-miterlimit="10" stroke-linecap="round"/>
<path d="M231.922 554.54L116.274 384.438" stroke="#EBEBEB" stroke-miterlimit="10" stroke-linecap="round"/>
<path d="M168.371 570.177L174.842 364.621" stroke="#EBEBEB" stroke-miterlimit="10" stroke-linecap="round"/>
<path d="M106.102 546.516L232.204 384.025" stroke="#EBEBEB" stroke-miterlimit="10" stroke-linecap="round"/>
<path d="M67.9465 491.796L265.521 434.414" stroke="#EBEBEB" stroke-miterlimit="10" stroke-linecap="round"/>
<path d="M67.5574 426.069L261.141 495.732" stroke="#EBEBEB" stroke-miterlimit="10" stroke-linecap="round"/>
<path d="M104.163 373.614L219.819 543.701" stroke="#EBEBEB" stroke-miterlimit="10" stroke-linecap="round"/>
<path d="M162.907 353.607L156.444 559.155" stroke="#EBEBEB" stroke-miterlimit="10" stroke-linecap="round"/>
<path d="M220.452 372.813L94.3423 535.311" stroke="#EBEBEB" stroke-miterlimit="10" stroke-linecap="round"/>
<path d="M253.945 423.018L56.3627 480.4" stroke="#EBEBEB" stroke-miterlimit="10" stroke-linecap="round"/>
<path d="M249.74 484.16L56.1566 414.498" stroke="#EBEBEB" stroke-miterlimit="10" stroke-linecap="round"/>
<path d="M208.601 531.955L92.9534 361.852" stroke="#EBEBEB" stroke-miterlimit="10" stroke-linecap="round"/>
<path d="M145.424 547.225L151.88 341.677" stroke="#EBEBEB" stroke-miterlimit="10" stroke-linecap="round"/>
<path d="M83.5063 523.214L209.609 360.716" stroke="#EBEBEB" stroke-miterlimit="10" stroke-linecap="round"/>
<path d="M45.7174 468.135L243.292 410.76" stroke="#EBEBEB" stroke-miterlimit="10" stroke-linecap="round"/>
<path d="M45.7021 402.065L239.286 471.728" stroke="#EBEBEB" stroke-miterlimit="10" stroke-linecap="round"/>
<path d="M82.6897 349.267L198.345 519.354" stroke="#EBEBEB" stroke-miterlimit="10" stroke-linecap="round"/>
<path d="M141.83 328.924L135.359 534.472" stroke="#EBEBEB" stroke-miterlimit="10" stroke-linecap="round"/>
<path d="M199.757 347.802L73.647 510.3" stroke="#EBEBEB" stroke-miterlimit="10" stroke-linecap="round"/>
<path d="M233.646 397.687L36.0718 455.069" stroke="#EBEBEB" stroke-miterlimit="10" stroke-linecap="round"/>
<path d="M229.839 458.509L36.255 388.846" stroke="#EBEBEB" stroke-miterlimit="10" stroke-linecap="round"/>
<path d="M189.104 505.998L73.4562 335.896" stroke="#EBEBEB" stroke-miterlimit="10" stroke-linecap="round"/>
<path d="M126.324 520.964L132.795 315.416" stroke="#EBEBEB" stroke-miterlimit="10" stroke-linecap="round"/>
<path d="M64.8408 496.662L190.936 334.164" stroke="#EBEBEB" stroke-miterlimit="10" stroke-linecap="round"/>
<path d="M27.4564 441.293L225.046 383.911" stroke="#EBEBEB" stroke-miterlimit="10" stroke-linecap="round"/>
<path d="M27.8761 374.941L221.452 444.604" stroke="#EBEBEB" stroke-miterlimit="10" stroke-linecap="round"/>
<path d="M65.2986 321.861L180.947 491.948" stroke="#EBEBEB" stroke-miterlimit="10" stroke-linecap="round"/>
<path d="M124.859 301.244L118.388 506.807" stroke="#EBEBEB" stroke-miterlimit="10" stroke-linecap="round"/>
<path d="M183.228 319.87L57.1182 482.36" stroke="#EBEBEB" stroke-miterlimit="10" stroke-linecap="round"/>
<path d="M217.553 369.503L19.978 426.87" stroke="#EBEBEB" stroke-miterlimit="10" stroke-linecap="round"/>
<path d="M214.195 430.073L20.6113 360.403" stroke="#EBEBEB" stroke-miterlimit="10" stroke-linecap="round"/>
<path d="M173.911 477.318L58.2628 307.216" stroke="#EBEBEB" stroke-miterlimit="10" stroke-linecap="round"/>
<path d="M111.588 492.055L118.052 286.492" stroke="#EBEBEB" stroke-miterlimit="10" stroke-linecap="round"/>
<path d="M50.5555 467.51L176.65 305.012" stroke="#EBEBEB" stroke-miterlimit="10" stroke-linecap="round"/>
<path d="M13.6366 411.92L211.211 354.553" stroke="#EBEBEB" stroke-miterlimit="10" stroke-linecap="round"/>
<path d="M14.5142 345.354L208.09 415.017" stroke="#EBEBEB" stroke-miterlimit="10" stroke-linecap="round"/>
<path d="M52.3945 292.075L168.058 462.163" stroke="#EBEBEB" stroke-miterlimit="10" stroke-linecap="round"/>
<path d="M112.428 271.259L105.964 476.807" stroke="#EBEBEB" stroke-miterlimit="10" stroke-linecap="round"/>
<path d="M171.271 289.688L45.1604 452.185" stroke="#EBEBEB" stroke-miterlimit="10" stroke-linecap="round"/>
<path d="M206.068 339.137L8.49329 396.504" stroke="#EBEBEB" stroke-miterlimit="10" stroke-linecap="round"/>
<path d="M203.199 399.532L9.61511 329.87" stroke="#EBEBEB" stroke-miterlimit="10" stroke-linecap="round"/>
<path d="M163.395 446.61L47.7473 276.507" stroke="#EBEBEB" stroke-miterlimit="10" stroke-linecap="round"/>
<path d="M101.554 461.186L108.017 255.631" stroke="#EBEBEB" stroke-miterlimit="10" stroke-linecap="round"/>
<path d="M41.0015 436.496L167.112 273.99" stroke="#EBEBEB" stroke-miterlimit="10" stroke-linecap="round"/>
<path d="M4.57861 380.754L202.153 323.379" stroke="#EBEBEB" stroke-miterlimit="10" stroke-linecap="round"/>
<path d="M5.93689 314.042L199.528 383.705" stroke="#EBEBEB" stroke-miterlimit="10" stroke-linecap="round"/>
<path d="M44.3362 260.634L159.977 430.722" stroke="#EBEBEB" stroke-miterlimit="10" stroke-linecap="round"/>
<path d="M104.85 239.704L98.3867 445.252" stroke="#EBEBEB" stroke-miterlimit="10" stroke-linecap="round"/>
<path d="M164.189 258.01L38.0787 420.516" stroke="#EBEBEB" stroke-miterlimit="10" stroke-linecap="round"/>
<path d="M199.498 307.353L1.90771 364.728" stroke="#EBEBEB" stroke-miterlimit="10" stroke-linecap="round"/>
<path d="M197.109 367.642L3.52551 297.979" stroke="#EBEBEB" stroke-miterlimit="10" stroke-linecap="round"/>
<path d="M157.817 414.635L42.1689 244.532" stroke="#EBEBEB" stroke-miterlimit="10" stroke-linecap="round"/>
<path d="M96.479 429.127L102.935 223.572" stroke="#EBEBEB" stroke-miterlimit="10" stroke-linecap="round"/>
<path d="M36.4229 404.353L162.533 241.863" stroke="#EBEBEB" stroke-miterlimit="10" stroke-linecap="round"/>
<path d="M0.51123 348.558L198.086 291.175" stroke="#EBEBEB" stroke-miterlimit="10" stroke-linecap="round"/>
<path d="M2.38086 281.793L195.957 351.456" stroke="#EBEBEB" stroke-miterlimit="10" stroke-linecap="round"/>
<path d="M41.2686 228.316L156.917 398.411" stroke="#EBEBEB" stroke-miterlimit="10" stroke-linecap="round"/>
<path d="M102.301 207.34L95.8379 412.903" stroke="#EBEBEB" stroke-miterlimit="10" stroke-linecap="round"/>
<path d="M162.144 225.624L36.0413 388.114" stroke="#EBEBEB" stroke-miterlimit="10" stroke-linecap="round"/>
<path d="M197.956 274.936L0.381592 332.303" stroke="#EBEBEB" stroke-miterlimit="10" stroke-linecap="round"/>
<path d="M196.087 335.217L2.51062 265.554" stroke="#EBEBEB" stroke-miterlimit="10" stroke-linecap="round"/>
<path d="M157.306 382.18L41.6501 212.092" stroke="#EBEBEB" stroke-miterlimit="10" stroke-linecap="round"/>
<path d="M96.479 396.672L102.935 191.109" stroke="#EBEBEB" stroke-miterlimit="10" stroke-linecap="round"/>
<path d="M36.9341 371.898L163.044 209.408" stroke="#EBEBEB" stroke-miterlimit="10" stroke-linecap="round"/>
<path d="M1.52625 316.11L199.109 258.728" stroke="#EBEBEB" stroke-miterlimit="10" stroke-linecap="round"/>
<path d="M3.9071 249.368L197.498 319.031" stroke="#EBEBEB" stroke-miterlimit="10" stroke-linecap="round"/>
<path d="M43.306 195.937L158.962 366.024" stroke="#EBEBEB" stroke-miterlimit="10" stroke-linecap="round"/>
<path d="M104.85 174.992L98.3867 380.54" stroke="#EBEBEB" stroke-miterlimit="10" stroke-linecap="round"/>
<path d="M165.204 193.313L39.0938 355.811" stroke="#EBEBEB" stroke-miterlimit="10" stroke-linecap="round"/>
<path d="M201.528 242.679L3.93762 300.054" stroke="#EBEBEB" stroke-miterlimit="10" stroke-linecap="round"/>
<path d="M200.162 303.005L6.57788 233.343" stroke="#EBEBEB" stroke-miterlimit="10" stroke-linecap="round"/>
<path d="M161.869 350.045L46.2288 179.958" stroke="#EBEBEB" stroke-miterlimit="10" stroke-linecap="round"/>
<path d="M101.554 364.606L108.017 159.058" stroke="#EBEBEB" stroke-miterlimit="10" stroke-linecap="round"/>
<path d="M42.5125 339.931L168.623 177.44" stroke="#EBEBEB" stroke-miterlimit="10" stroke-linecap="round"/>
<path d="M7.61572 284.226L205.198 226.852" stroke="#EBEBEB" stroke-miterlimit="10" stroke-linecap="round"/>
<path d="M10.4927 217.584L204.069 287.247" stroke="#EBEBEB" stroke-miterlimit="10" stroke-linecap="round"/>
<path d="M50.4028 164.26L166.043 334.347" stroke="#EBEBEB" stroke-miterlimit="10" stroke-linecap="round"/>
<path d="M112.428 143.421L105.964 348.985" stroke="#EBEBEB" stroke-miterlimit="10" stroke-linecap="round"/>
<path d="M173.277 161.873L47.1749 324.378" stroke="#EBEBEB" stroke-miterlimit="10" stroke-linecap="round"/>
<path d="M210.09 211.368L12.5149 268.742" stroke="#EBEBEB" stroke-miterlimit="10" stroke-linecap="round"/>
<path d="M209.212 271.839L15.636 202.177" stroke="#EBEBEB" stroke-miterlimit="10" stroke-linecap="round"/>
<path d="M171.423 319.023L55.7827 148.928" stroke="#EBEBEB" stroke-miterlimit="10" stroke-linecap="round"/>
<path d="M111.588 333.745L118.052 128.189" stroke="#EBEBEB" stroke-miterlimit="10" stroke-linecap="round"/>
<path d="M53.0355 309.222L179.146 146.731" stroke="#EBEBEB" stroke-miterlimit="10" stroke-linecap="round"/>
<path d="M18.6121 253.693L216.194 196.311" stroke="#EBEBEB" stroke-miterlimit="10" stroke-linecap="round"/>
<path d="M21.9697 187.227L215.553 256.889" stroke="#EBEBEB" stroke-miterlimit="10" stroke-linecap="round"/>
<path d="M62.3455 134.07L178.001 304.172" stroke="#EBEBEB" stroke-miterlimit="10" stroke-linecap="round"/>
<path d="M124.859 113.438L118.388 319.001" stroke="#EBEBEB" stroke-miterlimit="10" stroke-linecap="round"/>
<path d="M186.166 132.087L60.0714 294.592" stroke="#EBEBEB" stroke-miterlimit="10" stroke-linecap="round"/>
<path d="M223.452 181.788L25.8768 239.155" stroke="#EBEBEB" stroke-miterlimit="10" stroke-linecap="round"/>
<path d="M223.047 242.481L29.4557 172.803" stroke="#EBEBEB" stroke-miterlimit="10" stroke-linecap="round"/>
<path d="M185.709 289.871L70.0604 119.784" stroke="#EBEBEB" stroke-miterlimit="10" stroke-linecap="round"/>
<path d="M126.324 304.829L132.795 99.2808" stroke="#EBEBEB" stroke-miterlimit="10" stroke-linecap="round"/>
<path d="M68.2289 280.535L194.339 118.044" stroke="#EBEBEB" stroke-miterlimit="10" stroke-linecap="round"/>
<path d="M34.2556 225.25L231.838 167.875" stroke="#EBEBEB" stroke-miterlimit="10" stroke-linecap="round"/>
<path d="M38.0559 159.02L231.647 228.697" stroke="#EBEBEB" stroke-miterlimit="10" stroke-linecap="round"/>
<path d="M78.8743 106.146L194.515 276.233" stroke="#EBEBEB" stroke-miterlimit="10" stroke-linecap="round"/>
<path d="M141.83 85.7646L135.359 291.32" stroke="#EBEBEB" stroke-miterlimit="10" stroke-linecap="round"/>
<path d="M203.573 104.681L77.4624 267.179" stroke="#EBEBEB" stroke-miterlimit="10" stroke-linecap="round"/>
<path d="M241.285 154.665L43.7104 212.032" stroke="#EBEBEB" stroke-miterlimit="10" stroke-linecap="round"/>
<path d="M241.293 215.624L47.7168 145.961" stroke="#EBEBEB" stroke-miterlimit="10" stroke-linecap="round"/>
<path d="M204.381 263.327L88.7334 93.2241" stroke="#EBEBEB" stroke-miterlimit="10" stroke-linecap="round"/>
<path d="M145.424 278.567L151.88 73.0112" stroke="#EBEBEB" stroke-miterlimit="10" stroke-linecap="round"/>
<path d="M87.7261 254.586L213.829 92.0879" stroke="#EBEBEB" stroke-miterlimit="10" stroke-linecap="round"/>
<path d="M54.1573 199.598L251.74 142.231" stroke="#EBEBEB" stroke-miterlimit="10" stroke-linecap="round"/>
<path d="M58.3544 133.696L251.953 203.359" stroke="#EBEBEB" stroke-miterlimit="10" stroke-linecap="round"/>
<path d="M99.5771 81.1343L215.225 251.222" stroke="#EBEBEB" stroke-miterlimit="10" stroke-linecap="round"/>
<path d="M162.907 61.0894L156.444 266.637" stroke="#EBEBEB" stroke-miterlimit="10" stroke-linecap="round"/>
<path d="M225.046 80.3413L98.936 242.832" stroke="#EBEBEB" stroke-miterlimit="10" stroke-linecap="round"/>
<path d="M263.133 130.66L65.5581 188.027" stroke="#EBEBEB" stroke-miterlimit="10" stroke-linecap="round"/>
<path d="M263.53 191.979L69.9459 122.301" stroke="#EBEBEB" stroke-miterlimit="10" stroke-linecap="round"/>
<path d="M226.977 240.025L111.329 69.9146" stroke="#EBEBEB" stroke-miterlimit="10" stroke-linecap="round"/>
<path d="M168.371 255.623L174.842 50.0596" stroke="#EBEBEB" stroke-miterlimit="10" stroke-linecap="round"/>
<path d="M111.047 231.993L237.149 69.5024" stroke="#EBEBEB" stroke-miterlimit="10" stroke-linecap="round"/>
<path d="M77.8364 177.387L275.411 120.005" stroke="#EBEBEB" stroke-miterlimit="10" stroke-linecap="round"/>
<path d="M82.377 111.851L275.968 181.513" stroke="#EBEBEB" stroke-miterlimit="10" stroke-linecap="round"/>
<path d="M123.935 59.6704L239.583 229.765" stroke="#EBEBEB" stroke-miterlimit="10" stroke-linecap="round"/>
<path d="M187.601 40.0068L181.13 245.562" stroke="#EBEBEB" stroke-miterlimit="10" stroke-linecap="round"/>
<path d="M250.068 59.6475L123.958 222.153" stroke="#EBEBEB" stroke-miterlimit="10" stroke-linecap="round"/>
<path d="M288.475 110.363L90.9006 167.73" stroke="#EBEBEB" stroke-miterlimit="10" stroke-linecap="round"/>
<path d="M289.185 172.086L95.5938 102.408" stroke="#EBEBEB" stroke-miterlimit="10" stroke-linecap="round"/>
<path d="M252.945 220.528L137.297 50.4409" stroke="#EBEBEB" stroke-miterlimit="10" stroke-linecap="round"/>
<path d="M194.644 236.531L201.115 30.9834" stroke="#EBEBEB" stroke-miterlimit="10" stroke-linecap="round"/>
<path d="M137.603 213.335L263.713 50.8452" stroke="#EBEBEB" stroke-miterlimit="10" stroke-linecap="round"/>
<path d="M104.69 159.142L302.265 101.767" stroke="#EBEBEB" stroke-miterlimit="10" stroke-linecap="round"/>
<path d="M109.52 94.0405L303.104 163.703" stroke="#EBEBEB" stroke-miterlimit="10" stroke-linecap="round"/>
<path d="M151.346 42.272L266.994 212.375" stroke="#EBEBEB" stroke-miterlimit="10" stroke-linecap="round"/>
<path d="M215.294 23.0581L208.823 228.606" stroke="#EBEBEB" stroke-miterlimit="10" stroke-linecap="round"/>
<path d="M278.013 43.1265L151.911 205.624" stroke="#EBEBEB" stroke-miterlimit="10" stroke-linecap="round"/>
<path d="M316.68 94.2769L119.097 151.659" stroke="#EBEBEB" stroke-miterlimit="10" stroke-linecap="round"/>
<path d="M317.633 156.449L124.057 86.7715" stroke="#EBEBEB" stroke-miterlimit="10" stroke-linecap="round"/>
<path d="M281.638 205.342L165.998 35.2549" stroke="#EBEBEB" stroke-miterlimit="10" stroke-linecap="round"/>
<path d="M223.581 221.81L230.052 16.2466" stroke="#EBEBEB" stroke-miterlimit="10" stroke-linecap="round"/>
<path d="M166.768 199.057L292.878 36.5664" stroke="#EBEBEB" stroke-miterlimit="10" stroke-linecap="round"/>
<path d="M134.069 145.328L331.644 87.9536" stroke="#EBEBEB" stroke-miterlimit="10" stroke-linecap="round"/>
<path d="M139.106 80.6768L332.697 150.347" stroke="#EBEBEB" stroke-miterlimit="10" stroke-linecap="round"/>
<path d="M181.145 29.3892L296.785 199.484" stroke="#EBEBEB" stroke-miterlimit="10" stroke-linecap="round"/>
<path d="M245.291 10.6328L238.828 216.181" stroke="#EBEBEB" stroke-miterlimit="10" stroke-linecap="round"/>
<path d="M308.209 31.1738L182.099 193.679" stroke="#EBEBEB" stroke-miterlimit="10" stroke-linecap="round"/>
<path d="M347.059 82.8125L149.476 140.187" stroke="#EBEBEB" stroke-miterlimit="10" stroke-linecap="round"/>
<path d="M348.188 145.442L154.612 75.7798" stroke="#EBEBEB" stroke-miterlimit="10" stroke-linecap="round"/>
<path d="M312.36 194.824L196.72 24.7363" stroke="#EBEBEB" stroke-miterlimit="10" stroke-linecap="round"/>
<path d="M254.456 211.772L260.927 6.22412" stroke="#EBEBEB" stroke-miterlimit="10" stroke-linecap="round"/>
<path d="M197.804 189.515L323.914 27.0171" stroke="#EBEBEB" stroke-miterlimit="10" stroke-linecap="round"/>
<path d="M165.25 136.274L362.832 78.8994" stroke="#EBEBEB" stroke-miterlimit="10" stroke-linecap="round"/>
<path d="M170.431 72.1187L364.015 141.781" stroke="#EBEBEB" stroke-miterlimit="10" stroke-linecap="round"/>
<path d="M212.6 21.3188L328.241 191.406" stroke="#EBEBEB" stroke-miterlimit="10" stroke-linecap="round"/>
<path d="M276.861 3.05859L270.397 208.607" stroke="#EBEBEB" stroke-miterlimit="10" stroke-linecap="round"/>
<path d="M339.901 24.0957L213.791 186.601" stroke="#EBEBEB" stroke-miterlimit="10" stroke-linecap="round"/>
<path d="M378.85 76.23L181.275 133.597" stroke="#EBEBEB" stroke-miterlimit="10" stroke-linecap="round"/>
<path d="M380.078 139.371L186.502 69.6934" stroke="#EBEBEB" stroke-miterlimit="10" stroke-linecap="round"/>
<path d="M344.35 189.248L228.702 19.1528" stroke="#EBEBEB" stroke-miterlimit="10" stroke-linecap="round"/>
<path d="M286.522 206.7L292.993 1.14404" stroke="#EBEBEB" stroke-miterlimit="10" stroke-linecap="round"/>
<path d="M229.953 184.946L356.063 22.4404" stroke="#EBEBEB" stroke-miterlimit="10" stroke-linecap="round"/>
<path d="M197.46 132.194L395.043 74.8267" stroke="#EBEBEB" stroke-miterlimit="10" stroke-linecap="round"/>
<path d="M202.71 68.5488L396.294 138.219" stroke="#EBEBEB" stroke-miterlimit="10" stroke-linecap="round"/>
<path d="M244.925 18.2681L360.573 188.355" stroke="#EBEBEB" stroke-miterlimit="10" stroke-linecap="round"/>
<path d="M309.232 0.503418L302.768 206.067" stroke="#EBEBEB" stroke-miterlimit="10" stroke-linecap="round"/>
<path d="M372.302 22.0591L246.199 184.565" stroke="#EBEBEB" stroke-miterlimit="10" stroke-linecap="round"/>
<path d="M411.289 74.6895L213.707 132.079" stroke="#EBEBEB" stroke-miterlimit="10" stroke-linecap="round"/>
<path d="M412.54 138.349L218.957 68.6787" stroke="#EBEBEB" stroke-miterlimit="10" stroke-linecap="round"/>
<path d="M376.82 188.737L261.172 18.6494" stroke="#EBEBEB" stroke-miterlimit="10" stroke-linecap="round"/>
<path d="M319.007 206.7L325.463 1.14404" stroke="#EBEBEB" stroke-miterlimit="10" stroke-linecap="round"/>
<path d="M262.423 185.449L388.526 22.9512" stroke="#EBEBEB" stroke-miterlimit="10" stroke-linecap="round"/>
<path d="M229.923 133.223L427.497 75.8486" stroke="#EBEBEB" stroke-miterlimit="10" stroke-linecap="round"/>
<path d="M235.15 70.082L428.726 139.745" stroke="#EBEBEB" stroke-miterlimit="10" stroke-linecap="round"/>
<path d="M277.334 20.2969L392.982 190.392" stroke="#EBEBEB" stroke-miterlimit="10" stroke-linecap="round"/>
<path d="M341.603 3.05859L335.139 208.607" stroke="#EBEBEB" stroke-miterlimit="10" stroke-linecap="round"/>
<path d="M404.627 25.1099L278.517 187.615" stroke="#EBEBEB" stroke-miterlimit="10" stroke-linecap="round"/>
<path d="M443.568 78.2588L245.993 135.633" stroke="#EBEBEB" stroke-miterlimit="10" stroke-linecap="round"/>
<path d="M444.751 142.415L251.167 72.752" stroke="#EBEBEB" stroke-miterlimit="10" stroke-linecap="round"/>
<path d="M408.969 193.313L293.313 23.2183" stroke="#EBEBEB" stroke-miterlimit="10" stroke-linecap="round"/>
<path d="M351.073 211.772L357.544 6.22412" stroke="#EBEBEB" stroke-miterlimit="10" stroke-linecap="round"/>
<path d="M294.412 191.033L420.507 28.5273" stroke="#EBEBEB" stroke-miterlimit="10" stroke-linecap="round"/>
<path d="M261.812 139.295L459.387 81.9277" stroke="#EBEBEB" stroke-miterlimit="10" stroke-linecap="round"/>
<path d="M266.941 76.6646L460.524 146.327" stroke="#EBEBEB" stroke-miterlimit="10" stroke-linecap="round"/>
<path d="M309.026 27.3828L424.674 197.47" stroke="#EBEBEB" stroke-miterlimit="10" stroke-linecap="round"/>
<path d="M373.172 10.6328L366.708 216.181" stroke="#EBEBEB" stroke-miterlimit="10" stroke-linecap="round"/>
<path d="M436.082 33.1802L309.972 195.686" stroke="#EBEBEB" stroke-miterlimit="10" stroke-linecap="round"/>
<path d="M474.878 86.8169L277.303 144.199" stroke="#EBEBEB" stroke-miterlimit="10" stroke-linecap="round"/>
<path d="M475.931 151.468L282.348 81.8057" stroke="#EBEBEB" stroke-miterlimit="10" stroke-linecap="round"/>
<path d="M439.997 202.863L324.349 32.7603" stroke="#EBEBEB" stroke-miterlimit="10" stroke-linecap="round"/>
<path d="M381.963 221.81L388.419 16.2466" stroke="#EBEBEB" stroke-miterlimit="10" stroke-linecap="round"/>
<path d="M325.135 201.551L451.23 39.0454" stroke="#EBEBEB" stroke-miterlimit="10" stroke-linecap="round"/>
<path d="M292.367 150.301L489.942 92.9189" stroke="#EBEBEB" stroke-miterlimit="10" stroke-linecap="round"/>
<path d="M297.32 88.1289L490.904 157.807" stroke="#EBEBEB" stroke-miterlimit="10" stroke-linecap="round"/>
<path d="M339.214 39.3276L454.862 209.423" stroke="#EBEBEB" stroke-miterlimit="10" stroke-linecap="round"/>
<path d="M403.177 23.0581L396.706 228.606" stroke="#EBEBEB" stroke-miterlimit="10" stroke-linecap="round"/>
<path d="M465.881 46.0781L339.771 208.568" stroke="#EBEBEB" stroke-miterlimit="10" stroke-linecap="round"/>
<path d="M504.479 100.188L306.897 157.555" stroke="#EBEBEB" stroke-miterlimit="10" stroke-linecap="round"/>
<path d="M505.318 165.29L311.735 95.627" stroke="#EBEBEB" stroke-miterlimit="10" stroke-linecap="round"/>
<path d="M469.155 217.142L353.515 47.0391" stroke="#EBEBEB" stroke-miterlimit="10" stroke-linecap="round"/>
<path d="M410.885 236.531L417.356 30.9834" stroke="#EBEBEB" stroke-miterlimit="10" stroke-linecap="round"/>
<path d="M353.827 216.737L479.93 54.2319" stroke="#EBEBEB" stroke-miterlimit="10" stroke-linecap="round"/>
<path d="M320.816 165.938L518.39 108.556" stroke="#EBEBEB" stroke-miterlimit="10" stroke-linecap="round"/>
<path d="M325.524 104.215L519.1 173.878" stroke="#EBEBEB" stroke-miterlimit="10" stroke-linecap="round"/>
<path d="M367.167 55.8569L482.815 225.944" stroke="#EBEBEB" stroke-miterlimit="10" stroke-linecap="round"/>
<path d="M430.87 40.0142L424.399 245.562" stroke="#EBEBEB" stroke-miterlimit="10" stroke-linecap="round"/>
<path d="M493.299 63.4614L367.189 225.967" stroke="#EBEBEB" stroke-miterlimit="10" stroke-linecap="round"/>
<path d="M531.615 117.999L334.032 175.373" stroke="#EBEBEB" stroke-miterlimit="10" stroke-linecap="round"/>
<path d="M532.172 183.535L338.588 113.864" stroke="#EBEBEB" stroke-miterlimit="10" stroke-linecap="round"/>
<path d="M495.726 235.799L380.078 65.6963" stroke="#EBEBEB" stroke-miterlimit="10" stroke-linecap="round"/>
<path d="M437.158 255.623L443.629 50.0596" stroke="#EBEBEB" stroke-miterlimit="10" stroke-linecap="round"/>
<path d="M379.796 236.219L505.898 73.7207" stroke="#EBEBEB" stroke-miterlimit="10" stroke-linecap="round"/>
<path d="M346.479 185.815L544.053 128.448" stroke="#EBEBEB" stroke-miterlimit="10" stroke-linecap="round"/>
<path d="M350.859 124.513L544.443 194.175" stroke="#EBEBEB" stroke-miterlimit="10" stroke-linecap="round"/>
<path d="M392.181 76.5352L507.837 246.63" stroke="#EBEBEB" stroke-miterlimit="10" stroke-linecap="round"/>
<path d="M455.556 61.0894L449.093 266.637" stroke="#EBEBEB" stroke-miterlimit="10" stroke-linecap="round"/>
<path d="M517.658 84.9253L391.548 247.431" stroke="#EBEBEB" stroke-miterlimit="10" stroke-linecap="round"/>
<path d="M555.637 139.844L358.055 197.226" stroke="#EBEBEB" stroke-miterlimit="10" stroke-linecap="round"/>
<path d="M555.843 205.746L362.26 136.083" stroke="#EBEBEB" stroke-miterlimit="10" stroke-linecap="round"/>
<path d="M519.047 258.384L403.398 88.2817" stroke="#EBEBEB" stroke-miterlimit="10" stroke-linecap="round"/>
<path d="M460.12 278.567L466.591 73.0112" stroke="#EBEBEB" stroke-miterlimit="10" stroke-linecap="round"/>
<path d="M402.391 259.521L528.494 97.0303" stroke="#EBEBEB" stroke-miterlimit="10" stroke-linecap="round"/>
<path d="M368.708 209.476L566.283 152.109" stroke="#EBEBEB" stroke-miterlimit="10" stroke-linecap="round"/>
<path d="M372.714 148.517L566.298 218.179" stroke="#EBEBEB" stroke-miterlimit="10" stroke-linecap="round"/>
<path d="M413.662 100.882L529.295 270.977" stroke="#EBEBEB" stroke-miterlimit="10" stroke-linecap="round"/>
<path d="M476.641 85.7646L470.17 291.32" stroke="#EBEBEB" stroke-miterlimit="10" stroke-linecap="round"/>
<path d="M538.353 109.936L412.243 272.442" stroke="#EBEBEB" stroke-miterlimit="10" stroke-linecap="round"/>
<path d="M575.943 165.167L378.354 222.55" stroke="#EBEBEB" stroke-miterlimit="10" stroke-linecap="round"/>
<path d="M575.745 231.39L382.161 161.728" stroke="#EBEBEB" stroke-miterlimit="10" stroke-linecap="round"/>
<path d="M538.544 284.341L422.896 114.238" stroke="#EBEBEB" stroke-miterlimit="10" stroke-linecap="round"/>
<path d="M479.205 304.829L485.676 99.2808" stroke="#EBEBEB" stroke-miterlimit="10" stroke-linecap="round"/>
<path d="M421.064 286.08L547.159 123.59" stroke="#EBEBEB" stroke-miterlimit="10" stroke-linecap="round"/>
<path d="M386.954 236.318L584.544 178.966" stroke="#EBEBEB" stroke-miterlimit="10" stroke-linecap="round"/>
<path d="M390.548 175.64L584.124 245.318" stroke="#EBEBEB" stroke-miterlimit="10" stroke-linecap="round"/>
<path d="M431.053 128.296L546.701 298.383" stroke="#EBEBEB" stroke-miterlimit="10" stroke-linecap="round"/>
<path d="M554.882 137.876L428.772 300.366" stroke="#EBEBEB" stroke-miterlimit="10" stroke-linecap="round"/>
<path d="M592.022 193.367L394.447 250.741" stroke="#EBEBEB" stroke-miterlimit="10" stroke-linecap="round"/>
<path d="M591.389 259.841L397.805 190.171" stroke="#EBEBEB" stroke-miterlimit="10" stroke-linecap="round"/>
<path d="M553.737 313.028L438.089 142.925" stroke="#EBEBEB" stroke-miterlimit="10" stroke-linecap="round"/>
<path d="M435.35 315.225L561.46 152.734" stroke="#EBEBEB" stroke-miterlimit="10" stroke-linecap="round"/>
<path d="M400.789 265.691L598.363 208.324" stroke="#EBEBEB" stroke-miterlimit="10" stroke-linecap="round"/>
<path d="M403.91 205.228L597.486 274.89" stroke="#EBEBEB" stroke-miterlimit="10" stroke-linecap="round"/>
<path d="M443.958 158.082L559.59 328.169" stroke="#EBEBEB" stroke-miterlimit="10" stroke-linecap="round"/>
<path d="M566.84 168.051L440.729 330.556" stroke="#EBEBEB" stroke-miterlimit="10" stroke-linecap="round"/>
<path d="M603.507 223.732L405.932 281.107" stroke="#EBEBEB" stroke-miterlimit="10" stroke-linecap="round"/>
<path d="M602.385 290.382L408.801 220.711" stroke="#EBEBEB" stroke-miterlimit="10" stroke-linecap="round"/>
<path d="M564.253 343.737L448.605 173.634" stroke="#EBEBEB" stroke-miterlimit="10" stroke-linecap="round"/>
<path d="M444.888 346.254L570.999 183.749" stroke="#EBEBEB" stroke-miterlimit="10" stroke-linecap="round"/>
<path d="M409.847 296.858L607.421 239.491" stroke="#EBEBEB" stroke-miterlimit="10" stroke-linecap="round"/>
<path d="M412.472 236.531L606.063 306.194" stroke="#EBEBEB" stroke-miterlimit="10" stroke-linecap="round"/>
<path d="M452.023 189.515L567.679 359.61" stroke="#EBEBEB" stroke-miterlimit="10" stroke-linecap="round"/>
<path d="M573.921 199.728L447.811 362.234" stroke="#EBEBEB" stroke-miterlimit="10" stroke-linecap="round"/>
<path d="M610.092 255.516L412.502 312.883" stroke="#EBEBEB" stroke-miterlimit="10" stroke-linecap="round"/>
<path d="M608.475 322.257L414.891 252.595" stroke="#EBEBEB" stroke-miterlimit="10" stroke-linecap="round"/>
<path d="M569.831 375.704L454.183 205.602" stroke="#EBEBEB" stroke-miterlimit="10" stroke-linecap="round"/>
<path d="M449.467 378.374L575.577 215.883" stroke="#EBEBEB" stroke-miterlimit="10" stroke-linecap="round"/>
<path d="M413.914 329.069L611.489 271.687" stroke="#EBEBEB" stroke-miterlimit="10" stroke-linecap="round"/>
<path d="M416.043 268.788L609.619 338.451" stroke="#EBEBEB" stroke-miterlimit="10" stroke-linecap="round"/>
<path d="M455.083 221.817L570.732 391.92" stroke="#EBEBEB" stroke-miterlimit="10" stroke-linecap="round"/>
</g>
<defs>
<clipPath id="clip0_110_6612">
<rect width="612" height="620" fill="white"/>
</clipPath>
</defs>
</svg>
