<svg width="138" height="16" viewBox="0 0 138 16" fill="none" xmlns="http://www.w3.org/2000/svg">
<path d="M12 8L3 14.9282L3 1.0718L12 8Z" fill="#CBEA00"/>
<path d="M30 8L21 14.9282L21 1.0718L30 8Z" fill="#CBEA00"/>
<path d="M48 8L39 14.9282L39 1.0718L48 8Z" fill="#CBEA00"/>
<path d="M66 8L57 14.9282L57 1.0718L66 8Z" fill="#CBEA00"/>
<path d="M84 8L75 14.9282L75 1.0718L84 8Z" fill="#CBEA00"/>
<path d="M102 8L93 14.9282L93 1.0718L102 8Z" fill="#CBEA00"/>
<path d="M120 8L111 14.9282L111 1.0718L120 8Z" fill="#CBEA00"/>
<path d="M138 8L129 14.9282L129 1.0718L138 8Z" fill="#CBEA00"/>
</svg>
